Embedly==0.5.0
Pattern==2.6
PyFlickrStreamr==0.1
Pygments==1.6
Twisted==13.2.0
beautifulsoup4==4.3.2
cyclone==1.1
decorator==3.3.2
defer==1.0.2
docutils==0.11
facebook-sdk==0.4.0
flickrapi==1.4.2
gdata==2.0.18
google-api-python-client==1.2
httplib2==0.9
ipdb==0.8
ipython==1.1.0
lettuce==0.2.19
mongoengine==0.8.7
oauth==1.0.1
oauthlib==0.6.1
pycurl==7.19.0
pymongo==2.6.3
tornado==2.1
tweepy==2.2
twistedhttpstream==0.0.1
twitter==1.14.2
twython==3.1.2
virtualenv==1.11.5
wsgiref==0.1.2
